{
  "openapi": "3.0.1",
  "info": {
    "title": "Api Fernando",
    "description": "Junior Back End Developer - CHALLENGE - REIGN",
    "version": "1.0.0"
  },
  "servers": [
    {
      "url": "http://localhost:3001"
    }
  ],
  "tags": [
    {
      "name": "Articles",
      "description": "Articulos obtenidos de la api"
    },
    {
      "name": "DeleteArticle",
      "description": "Ruta para eliminar un artículo en base al is parado por parámetro"
    }
  ],
  "paths": {
    "/api/articles": {
      "get": {
        "tags": [
          "Articles"
        ],
        "summary": "Lista todos los post con un máximo de 5 elementos",
        "parameters": [
          {
            "$ref": "#/components/parameters/page"
          },
          {
            "$ref": "#/components/parameters/title"
          },
          {
            "$ref": "#/components/parameters/author"
          },
          {
            "$ref": "#/components/parameters/tags"
          }
        ],
        "responses": {
          "200": {
            "description": "(ok) La información fue listada correctamente",
            "content": {
              "application/json": {
                "schema": {
                  "$ref": "#/components/schemas/ExitosArticlesGet"
                }
              }
            }
          },
          "400": {
            "$ref": "#/components/responses/BadRequest"
          },
          "404": {
            "$ref": "#/components/responses/NotFound"
          },
          "500": {
            "$ref": "#/components/responses/ServerError"
          }
        }
      }
    },
    "/api/delete/{idarticle}": {
      "delete": {
        "tags": [
          "DeleteArticle"
        ],
        "summary": "Elimina un articulo",
        "parameters": [
          {
            "$ref": "#/components/parameters/idarticle"
          }
        ],
        "responses": {
          "200": {
            "description": "(ok) El artículo fue borrado correctamente",
            "content": {
              "application/json": {
                "schema": {
                  "$ref": "#/components/schemas/SuccesDeleted"
                }
              }
            }
          },
          "400": {
            "$ref": "#/components/responses/NotFound"
          }
        }
      }
    }
  },
  "components": {
    "responses": {
      "NotFound": {
        "description": "(NotFound) no se encontró la información"
      },
      "BadRequest": {
        "description": "(BadRequest) los datos enviados son incorrectos o hay datos obligatorios no enviados"
      },
      "ServerError": {
        "description": "Error en el servidor"
      }
    },
    "parameters": {
      "page": {
        "in": "query",
        "name": "page",
        "required": true,
        "schema": {
          "type": "integer"
        },
        "description": "The number of items to skip before starting to collect the result set"
      },
      "title": {
        "in": "query",
        "name": "title",
        "schema": {
          "type": "string"
        },
        "description": "Titulo de un artículo"
      },
      "author": {
        "in": "query",
        "name": "author",
        "schema": {
          "type": "string"
        },
        "description": "Nombre del autor del cual queremos sus artículos"
      },
      "tags": {
        "in": "query",
        "name": "tags",
        "schema": {
          "type": "string"
        },
        "description": "Tags de interes para filtrar las noticias, pueden ser más de 1 tag. (cada tag deve de ser reparado por una (,) y sin espacios. Ej tag1,tag2,tag3)"
      },
      "idarticle": {
        "in": "path",
        "name": "idarticle",
        "schema": {
          "type": "integer"
        },
        "required": true,
        "description": "Id del articulo a eliminar"
      }
    },
    "schemas": {
      "ExitosArticlesGet": {
        "type": "object",
        "properties": {
          "next": {
            "type": "string",
            "enum": [
              "http://localhost/articles?page=2"
            ],
            "description": "url de la siguiente lista de articulos"
          },
          "prev": {
            "type": "string",
            "enum": [
              "http://localhost/articles?page=0"
            ],
            "description": "Bandera que nos indica si la llamada al servicio fue exitosa"
          },
          "rows": {
            "type": "array",
            "items": {
              "type": "object",
              "properties": {
                "id": {
                  "type": "integer",
                  "enum": [
                    1
                  ],
                  "description": "id del articulo en la base de datos"
                },
                "title": {
                  "type": "string",
                  "enum": [
                    "Titulo del articulo"
                  ]
                },
                "author": {
                  "type": "string",
                  "enum": [
                    "fernando"
                  ]
                },
                "comment": {
                  "type": "string",
                  "enum": [
                    "contenido del artículo"
                  ]
                },
                "tags": {
                  "type": "array",
                  "items": {
                    "type": "string"
                  }
                }
              }
            }
          }
        }
      },
      "SuccesDeleted": {
        "type": "object",
        "properties": {
          "id": {
            "type": "integer",
            "enum": [
              1
            ],
            "description": "id del articulo en la base de datos"
          },
          "title": {
            "type": "string",
            "enum": [
              "Titulo del articulo"
            ]
          },
          "author": {
            "type": "string",
            "enum": [
              "fernando"
            ]
          },
          "comment": {
            "type": "string",
            "enum": [
              "contenido del artículo"
            ]
          },
          "tags": {
            "type": "array",
            "items": {
              "type": "string"
            }
          }
        }
      }
    }
  }
}